{
    "name": "laravel/laravel",
    "description": "The Laravel Framework.",
    "keywords": ["framework", "laravel"],
    "license": "MIT",
    "type": "project",
    "require": {
        "php": "^7.1.3",
        "anhskohbo/no-captcha": "^3.0",
        "barryvdh/laravel-debugbar": "^3.0",
        "barryvdh/laravel-ide-helper": "v2.4.3",
        "ckeditor/ckeditor": "4.*",
        "creativeorange/gravatar": "~1.0",
        "doctrine/dbal": "^2.5",
        "fideloper/proxy": "^4.0",
        "google/recaptcha": "^1.1",
        "guzzlehttp/guzzle": "^6.3",
        "intervention/image": "^2.4",
        "jaybizzle/laravel-crawler-detect": "1.*",
        "jeremykenedy/laravel-exception-notifier": "^1.1",
        "jeremykenedy/laravel-https": "^1.1",
        "jeremykenedy/laravel-logger": "^2.0",
        "jeremykenedy/laravel-phpinfo": "^1.2",
        "jeremykenedy/laravel-roles": "^1.2",
        "jeremykenedy/laravel2step": "^1.0",
        "jeremykenedy/uuid": "^3.1",
        "jeroennoten/laravel-adminlte": "^1.24",
        "laravel/framework": "5.6.*",
        "laravel/socialite": "^3.0",
        "laravel/tinker": "^1.0",
        "laravelcollective/html": "^5.5",
        "monolog/monolog": "^1.23",
        "nesbot/carbon": "^1.21",
        "pimple/pimple": "^3.2",
        "predis/predis": "~1.1.1",
        "proengsoft/laravel-jsvalidation": ">2.2.0",
        "pusher/pusher-php-server": "^3.0",
        "rap2hpoutre/laravel-log-viewer": "^0.10.4",
        "sebastian-berc/repositories": "^1.0",
        "socialiteproviders/37signals": "^3.0",
        "socialiteproviders/generators": "^2.0",
        "socialiteproviders/instagram": "^3.0",
        "socialiteproviders/twitch": "^3.0",
        "socialiteproviders/youtube": "^3.0",
        "spatie/flysystem-dropbox": "^1.0",
        "tightenco/ziggy": "v0.6.8.1",
        "unisharp/laravel-ckeditor": "^4.7"
    },
    "require-dev": {
        "filp/whoops": "^2.0",
        "fzaninotto/faker": "^1.4",
        "krlove/eloquent-model-generator": "^1.3",
        "mockery/mockery": "^1.0",
        "nunomaduro/collision": "^2.0",
        "phpunit/phpunit": "^7.0",
        "reliese/laravel": "^0.0.13"
    },
    "autoload": {
        "classmap": [
            "database/seeds",
            "database/factories"
        ],
        "psr-4": {
            "App\\": "app/",
            "Nahid\\Talk\\":"packages/nahid/talk/src"
        }
    },
    "autoload-dev": {
        "psr-4": {
            "Tests\\": "tests/"
        }
    },
    "extra": {
        "laravel": {
            "dont-discover": [
            ]
        }
    },
    "scripts": {
        "post-root-package-install": [
            "@php -r \"file_exists('.env') || copy('.env.example', '.env');\""
        ],
        "post-create-project-cmd": [
            "@php artisan key:generate"
        ],
        "post-autoload-dump": [
            "Illuminate\\Foundation\\ComposerScripts::postAutoloadDump",
            "@php artisan package:discover"
        ],
        "post-update-cmd": [
            "php artisan vendor:publish --provider=\"Proengsoft\\JsValidation\\JsValidationServiceProvider\" --tag=public --force"
        ]
    },
    "config": {
        "preferred-install": "dist",
        "sort-packages": true,
        "optimize-autoloader": true
    },
    "minimum-stability": "dev",
    "prefer-stable": true
}
